{
"listname" : [
        {"id":1, "name":"Amir", "desc":"Master"},
        {"id":2, "name":"Pak Haji", "desc":"Tech Lead Tandingan"},
        {"id":3, "name":"Zein", "desc":"Syeh"},
        {"id":4, "name":"Gagah", "desc":"Wakil Tech Lead Tandingan"},
        {"id":5, "name":"Inal", "desc":"Adenya nizar"},
        {"id":6, "name":"Ulan", "desc":"emank okeehh"},
        {"id":7, "name":"Komeng", "desc":"Raja Bacot"},
        {"id":8, "name":"Wicak", "desc":"Cijir Seven"},
        {"id":9, "name":"Dwi", "desc":"Minho"},
        {"id":10, "name":"Dede", "desc":"GOD APIT"},
        {"id":11, "name":"Ivan", "desc":"Bingung"},
        {"id":12, "name":"Dhimas", "desc":"Suaminya ellen"},
        {"id":13, "name":"Laghat", "desc":"Pacarnya tanta"},
        {"id":14, "name":"Maul", "desc":"Ulcrit"},
        {"id":15, "name":"Ira", "desc":"Mabk ira"},
        {"id":16, "name":"Fuad", "desc":"Maha Berotot"},
        {"id":17, "name":"Rizky", "desc":"GGS"},
        {"id":18, "name":"Firza", "desc":"Eneng"},
        {"id":19, "name":"Sulis", "desc":"Raja Galau"},
        {"id":20, "name":"Eka", "desc":"Master Segala Bisa"}
  ]
}